Linear Regression III – EC242
…
The first column denotes group. We created groups and for each one we generated a pair of independent vectors, \(X\) and \(Y\), with 25 observations each, stored in the second and third columns. Because we constructed the simulation, we know that \(X\) and \(Y\) are not correlated.

Next, we compute the correlation between X and Y for each group and look at the max:

res <- sim_data %>%
  group_by(group) %>%
  summarize(r = cor(x, y)) %>%
  arrange(desc(r))
res

# A tibble: 1,000,000 × 2
    group     r
    <int> <dbl>
 1 648278 0.852
 2 404745 0.831
 3 239061 0.768
 4 979172 0.766
 5 565886 0.763
 6 496951 0.759
 7 165110 0.756
 8 916022 0.751
 9 635400 0.749
10 655316 0.749
# ℹ 999,990 more rows
…
